ブルース,rdfs:subClassOf,音楽
Love in Vain,rdf:type,ブルース
Stand by Me,rdf:type,ブルース
The Thrill is Gone,rdf:type,ブルース
Voodoo Child,rdf:type,ブルース
Sweet Home Chicago,rdf:type,ブルース
Cross Road blues,rdf:type,ブルース
Walkin' blues,rdf:type,ブルース
32-20 blues,rdf:type,ブルース
When You Got a Good Friend,rdf:type,ブルース
Ramblin' on My Mind,rdf:type,ブルース
Milccow's Calf Blues,rdf:type,ブルース
Me and the Devil Blues,rdf:type,ブルース
Traveling Riverside Blues,rdf:type,ブルース
Louis Collins,rdf:type,ブルース
Avalon Blues,rdf:type,ブルース
Coffee Blues,rdf:type,ブルース
Monday Morning Blues,rdf:type,ブルース
Nobody Cares for Me,rdf:type,ブルース
クラシック,rdfs:subClassOf,音楽
白鳥の湖,rdf:type,クラシック
四季,rdf:type,クラシック
四季,rdf:type,クラシック
運命,rdf:type,クラシック
火の鳥,rdf:type,クラシック
新世界より,rdf:type,クラシック
ボレロ,rdf:type,クラシック
ラ・カンパネラ,rdf:type,クラシック
子犬のワルツ,rdf:type,クラシック
カノン,rdf:type,クラシック
G線上のアリア,rdf:type,クラシック
ワルキューレの騎行,rdf:type,クラシック
威風堂々,rdf:type,クラシック
アイネ・クライネ・ナハトムジーク,rdf:type,クラシック
ジャズ,rdfs:subClassOf,音楽
Fly Me to the Moon,rdf:type,ジャズ
Take Five,rdf:type,ジャズ
Blue in Green,rdf:type,ジャズ
Maiden Voyage,rdf:type,ジャズ
My Funny Valentine,rdf:type,ジャズ
When You Wish Upon a Star,rdf:type,ジャズ
My Favorite Things,rdf:type,ジャズ
Moanin',rdf:type,ジャズ
So What,rdf:type,ジャズ
What a Wonderful World,rdf:type,ジャズ
Indiana,rdf:type,ジャズ
Now's the Time,rdf:type,ジャズ
Take the A train,rdf:type,ジャズ
J-pop,rdfs:subClassOf,音楽
花,rdf:type,J-pop
桜坂,rdf:type,J-pop
らいおんハート,rdf:type,J-pop
波乗りジョニー,rdf:type,J-pop
ボクの背中には羽根がある,rdf:type,J-pop
アゲハ蝶,rdf:type,J-pop
世界に一つだけの花,rdf:type,J-pop
さくら（独唱）,rdf:type,J-pop
HERO,rdf:type,J-pop
大切なもの,rdf:type,J-pop
心絵,rdf:type,J-pop
さらば蒼き面影,rdf:type,J-pop
瞳をとじて,rdf:type,J-pop
Sign,rdf:type,J-pop
青春アミーゴ,rdf:type,J-pop
さくら,rdf:type,J-pop
ラヴ・パレード,rdf:type,J-pop
しるし,rdf:type,J-pop
旅立ちの唄,rdf:type,J-pop
HANABI,rdf:type,J-pop
カントリー,rdfs:subClassOf,音楽
Walk the Line,rdf:type,カントリー
Leaving on a Jet Plane,rdf:type,カントリー
Tequila Mekes Her Clothes Fall Off,rdf:type,カントリー
Little Bitty,rdf:type,カントリー
Only the Lonely,rdf:type,カントリー
Jackson,rdf:type,カントリー
Too Cold At Home,rdf:type,カントリー
When a Man Loves A Woman,rdf:type,カントリー
Blue Moon Of Kentucky,rdf:type,カントリー
Always On My Mind,rdf:type,カントリー
Young Love,rdf:type,カントリー
A White Sport Coat and a Pink Carnation,rdf:type,カントリー
Jambalaya (On the Bayou),rdf:type,カントリー
Les Paul and Mary Ford,rdf:type,カントリー
Love of a Woman (Down the Road I Go),rdf:type,カントリー
I will always love you,rdf:type,カントリー
ヒップホップ,rdfs:subClassOf,音楽
Hey Ya!,rdf:type,ヒップホップ
Not Afraid,rdf:type,ヒップホップ
Without Me,rdf:type,ヒップホップ
Just a Dream,rdf:type,ヒップホップ
I Need a Doctor,rdf:type,ヒップホップ
Stronger,rdf:type,ヒップホップ
Fuck You,rdf:type,ヒップホップ
Lose Yourself,rdf:type,ヒップホップ
Only One,rdf:type,ヒップホップ
Runaway,rdf:type,ヒップホップ
Drop,rdf:type,ヒップホップ
Dry Your Eyes,rdf:type,ヒップホップ
Famous,rdf:type,ヒップホップ
Survival,rdf:type,ヒップホップ
The Real Slim Shady,rdf:type,ヒップホップ
When I'm Gone,rdf:type,ヒップホップ
Without Me,rdf:type,ヒップホップ
Like Toy Soldiers,rdf:type,ヒップホップ
Love The Way You Lie ft. Rihanna,rdf:type,ヒップホップ
Trun My Scale On,rdf:type,ヒップホップ
Number One,rdf:type,ヒップホップ
Dance 4 Me,rdf:type,ヒップホップ
演歌,rdfs:subClassOf,音楽
悲しい酒,rdf:type,演歌
北酒場,rdf:type,演歌
さざんかの宿,rdf:type,演歌
川の流れのように,rdf:type,演歌
おふくろさん,rdf:type,演歌
港町ブルース,rdf:type,演歌
襟裳岬,rdf:type,演歌
大阪ラプソディ,rdf:type,演歌
浪花節だよ人生は,rdf:type,演歌
兄弟船,rdf:type,演歌
赤いハンカチ,rdf:type,演歌
みちのくひとり度,rdf:type,演歌
道頓堀人情,rdf:type,演歌
珍島物語,rdf:type,演歌
函館の女,rdf:type,演歌
新宿の女,rdf:type,演歌
よこはま・たそがれ,rdf:type,演歌
そして、神戸,rdf:type,演歌
雪國,rdf:type,演歌
天城越え,rdf:type,演歌
越冬つばめ,rdf:type,演歌
千曲川,rdf:type,演歌
女の酒場,rdf:type,演歌
契り,rdf:type,演歌
レゲエ,rdfs:subClassOf,音楽
I shot the sheriff,rdf:type,レゲエ
One Love,rdf:type,レゲエ
No Woman No Cry,rdf:type,レゲエ
Three Little Birds,rdf:type,レゲエ
Games People Play,rdf:type,レゲエ
Sweat,rdf:type,レゲエ
Baby I Love Your Way,rdf:type,レゲエ
Small Axe,rdf:type,レゲエ
Slogans,rdf:type,レゲエ
Africa Unite,rdf:type,レゲエ
Buffalo Soldier,rdf:type,レゲエ
Get Up Stand Up,rdf:type,レゲエ
Natural Mystic,rdf:type,レゲエ
Soul Rebel,rdf:type,レゲエ
Make It Bun Dem,rdf:type,レゲエ
Affairs of the Heart,rdf:type,レゲエ
Set Up Shot,rdf:type,レゲエ
Nail Pon Cross,rdf:type,レゲエ
Nah Mean,rdf:type,レゲエ
It Was Written,rdf:type,レゲエ
More Justice,rdf:type,レゲエ
For the Babies,rdf:type,レゲエ
Africa Must Wake Up,rdf:type,レゲエ
ロック,rdfs:subClassOf,音楽
Rock Around the Clock,rdf:type,ロック
Jailhouse Rock,rdf:type,ロック
Johnny B. Goode,rdf:type,ロック
Satisfaction,rdf:type,ロック
Stairway to Heaven,rdf:type,ロック
Smoke On the water,rdf:type,ロック
My Generation,rdf:type,ロック
Purple Haze,rdf:type,ロック
Immigrant Song,rdf:type,ロック
Layla,rdf:type,ロック
Bohemian Rhapsody,rdf:type,ロック
Hotel California,rdf:type,ロック
Heart of Glass,rdf:type,ロック
London Calling,rdf:type,ロック
Jump,rdf:type,ロック
You Give Love a Bad Name,rdf:type,ロック
With or Without You,rdf:type,ロック
Creep,rdf:type,ロック
Don't Look Back in Anger,rdf:type,ロック
Highway Star,rdf:type,ロック
Child in Time,rdf:type,ロック
Hush,rdf:type,ロック
Black Night,rdf:type,ロック
Strange Kind of Woman,rdf:type,ロック
We well rock you,rdf:type,ロック
軍歌,rdfs:subClassOf,音楽
月月火水木金金,rdf:type,軍歌
敵は幾万,rdf:type,軍歌
婦人従軍歌,rdf:type,軍歌
凱旋,rdf:type,軍歌
勇敢なる水平,rdf:type,軍歌
関東軍軍歌,rdf:type,軍歌
神風だから,rdf:type,軍歌
祖国の柱,rdf:type,軍歌
軍国の母,rdf:type,軍歌
くろがねの力,rdf:type,軍歌
出征兵士を送る歌,rdf:type,軍歌
ああ草枕幾度ぞ,rdf:type,軍歌
戦友の遺骨を抱いて,rdf:type,軍歌
敵の炎,rdf:type,軍歌
勝利の日まで,rdf:type,軍歌
弾く,rdfs:subPropertyOf,演奏する
叩く,rdfs:subPropertyOf,演奏する
吹く,rdfs:subPropertyOf,演奏する
鳴らす,rdfs:subPropertyOf,演奏する
叫ぶ,rdfs:subPropertyOf,歌う
囁く,rdfs:subPropertyOf,歌う
聴く,rdfs:subPropertyOf,聞く
耳にする,rdfs:subPropertyOf,聞く
売れている,rdfs:subPropertyOf,人気がある
ファンが多い,rdfs:subPropertyOf,人気がある
マイクを立てる,rdfs:subPropertyOf,録る
録音する,rdfs:subPropertyOf,録る
録画する,rdfs:subPropertyOf,録る
スタジオ入りする,rdfs:subPropertyOf,録音する
レコーディングする,rdfs:subPropertyOf,録音する
演奏する,rdfs:subPropertyOf,嗜む
弾く,rdfs:subPropertyOf,嗜む
吹く,rdfs:subPropertyOf,嗜む
鳴らす,rdfs:subPropertyOf,嗜む
聞く,rdfs:subPropertyOf,嗜む
合唱する,rdfs:subPropertyOf,歌う
独唱する,rdfs:subPropertyOf,歌う
謡う,rdfs:subPropertyOf,歌う
唄う,rdfs:subPropertyOf,歌う
踊る,rdfs:subPropertyOf,表現する
弾く,rdfs:subPropertyOf,表現する
叩く,rdfs:subPropertyOf,表現する
吹く,rdfs:subPropertyOf,表現する
鳴らす,rdfs:subPropertyOf,表現する
歌う,rdfs:subPropertyOf,表現する
謡う,rdfs:subPropertyOf,表現する
弾く,rdfs:subPropertyOf,練習する
吹く,rdfs:subPropertyOf,練習する
鳴らす,rdfs:subPropertyOf,練習する
聞く,rdfs:subPropertyOf,練習する
謡う,rdfs:subPropertyOf,練習する
歌う,rdfs:subPropertyOf,練習する
踊る,rdfs:subPropertyOf,練習する
演奏する,rdfs:subPropertyOf,練習する
聞く,rdfs:subPropertyOf,楽しむ
演奏する,rdfs:subPropertyOf,楽しむ
踊る,rdfs:subPropertyOf,楽しむ
鳴らす,rdfs:subPropertyOf,楽しむ
叩く,rdfs:subPropertyOf,楽しむ
歌う,rdfs:subPropertyOf,楽しむ
謡う,rdfs:subPropertyOf,楽しむ
弾く,rdfs:subPropertyOf,楽しむ
吹く,rdfs:subPropertyOf,楽しむ
作曲する,rdfs:subPropertyOf,つくる
作詞する,rdfs:subPropertyOf,つくる
演奏する,rdfs:domain,人間
弾く,rdfs:domain,人間
叩く,rdfs:domain,人間
吹く,rdfs:domain,人間
謡う,rdfs:domain,人間
歌う,rdfs:domain,人間
合唱する,rdfs:domain,人間
独唱する,rdfs:domain,人間
鳴らす,rdfs:domain,人間
踊る,rdfs:domain,人間
表現する,rdfs:domain,人間
練習する,rdfs:domain,人間
録る,rdfs:domain,人間
録音する,rdfs:domain,人間
録画する,rdfs:domain,人間
レコーディングする,rdfs:domain,人間
スタジオ入りする,rdfs:domain,人間
マイクを立てる,rdfs:domain,人間
叫ぶ,rdfs:domain,人間
囁く,rdfs:domain,人間
聞く,rdfs:domain,人間
聴く,rdfs:domain,人間
嗜む,rdfs:domain,人間
人気がある,rdfs:domain,人間
売れている,rdfs:domain,人間
ファンが多い,rdfs:domain,人間
作詞する,rdfs:domain,人間
作曲する,rdfs:domain,人間
つくる,rdfs:domain,人間
楽しむ,rdfs:domain,人間
演奏する,rdfs:domain,音楽家
弾く,rdfs:domain,音楽家
叩く,rdfs:domain,音楽家
吹く,rdfs:domain,音楽家
歌う,rdfs:domain,音楽家
表現する,rdfs:domain,芸術家
録音する,,rdfs:domain,技術士
録画する,rdfs:domain,技術士
練習する,rdfs:domain,音楽家
レコーディングする,rdfs:domain,音楽家
スタジオ入りする,rdfs:domain,音楽家
人気がある,rdfs:domain,芸術家
売れている,rdfs:domain,芸術家
ファンが多い,rdfs:domain,芸術家
作詞する,rdfs:domain,作詞家
作曲する,rdfs:domain,作曲家
作詞する,rdfs:domain,音楽家
作曲する,rdfs:domain,音楽家
つくる,rdfs:domain,芸術家
つくる,rdfs:domain,音楽家
演奏する,rdfs:range,音楽
演奏する,rdfs:range,楽器
演奏する,rdfs:range,曲名
弾く,rdfs:range,弦楽器
弾く,rdfs:range,鍵盤楽器
叩く,rdfs:range,打楽器
吹く,rdfs:range,管楽器
謡う,rdfs:range,民謡
歌う,rdfs:range,音楽
歌う,rdfs:range,曲名
合唱する,rdfs:range,音楽
合唱する,rdfs:range,曲名
独唱する,rdfs:range,音楽
独唱する,rdfs:range,曲名
鳴らす,rdfs:range,楽器
踊る,rdfs:range,音楽
踊る,rfds:range,曲名
表現する,rdfs:range,音楽
表現する,rfds:range,曲名
練習する,rdfs:range,音楽
練習する,rdfs:range,曲名
録る,rdfs:range,曲名
録音する,rdfs:range,曲名
録画する,rdfs:range,曲名
レコーディングする,rdfs:range,曲名
スタジオ入りする,rdfs:range,曲名
マイクを立てる,rdfs:range,楽器
聞く,rdfs:range,音楽
聞く,rdfs:range,曲名
聞く,rdfs:range,音楽家
聴く,rdfs:range,音楽
聴く,rdfs:range,曲名
聴く,rdfs:range,音楽家
嗜む,rdfs:range,音楽
嗜む,rdfs:range,曲名
嗜む,rdfs:range,音楽家
つくる,rdfs:range,音楽
つくる,rdfs:range,曲名
楽しむ,rdfs:range,音楽
楽しむ,rdfs:range,曲名
作曲する,rdfs:range,音楽
作曲する,rdfs:range,曲名
作詞する,rdfs:range,音楽
作詞する,rdfs:range,曲名
好き,rdfs:range,音楽
好き,rdfs:range,曲名
好き,rdfs:range,音楽家
好き,rdfs:range,演奏する
好き,rdfs:range,練習する
好き,rdfs:range,つくる